trunk/hw/ip/sdspi/bench/verilog/tb_sdckgen.vcd
$date
	Sat Mar  9 12:03:47 2024
$end

$version
	Synopsys VCS version L-2016.06_Full64
$end

$timescale
	1ps
$end

$comment Csum: 1 fe03dde19684b0cf $end


$scope module tb_sdckgen $end
$var reg 1 ! clk $end
$var reg 1 " reset $end
$var reg 1 # cfg_clk90 $end
$var reg 1 $ cfg_shutdown $end
$var reg 8 % cfg_ckspd [7:0] $end
$var wire 1 & w_ckstb $end
$var wire 1 ' w_halfck $end
$var wire 8 ( w_ckwide [7:0] $end

$scope task capture_beats $end
$upscope $end


$scope module u_ckgen $end
$var wire 1 ) i_clk $end
$var wire 1 * i_reset $end
$var wire 1 + i_cfg_clk90 $end
$var wire 8 , i_cfg_ckspd [7:0] $end
$var wire 1 - i_cfg_shutdown $end
$var reg 1 . o_ckstb $end
$var reg 1 / o_hlfck $end
$var reg 8 0 o_ckwide [7:0] $end
$var reg 8 1 o_ckspd [7:0] $end
$var reg 1 2 nxt_stb $end
$var reg 1 3 nxt_clk $end
$var reg 10 4 nxt_counter [9:0] $end
$var reg 10 5 counter [9:0] $end
$var reg 1 6 clk90 $end
$var reg 8 7 ckspd [7:0] $end
$var wire 1 8 w_clk90 $end
$var wire 8 9 w_ckspd [7:0] $end
$upscope $end

$upscope $end

$enddefinitions $end

#0
$dumpvars
0#
0$
0!
x6
0+
0-
1*
03
x2
1.
1/
1"
1&
x8
1'
b11111100 %
bxxxxxxxx 7
bxxxxxxxxxx 5
b11111100 ,
bxxxxxxxxxx 4
bxxxxxxxx 1
b00000000 0
bxxxxxxxx 9
b00000000 (
0)
$end
#5000
1!
1)
b0000000000 5
06
b00000000 7
b0111111001 4
13
12
08
b11111100 9
#10000
0!
0)
#15000
1!
1)
0"
0*
b11111100 1
#20000
0!
0)
#25000
1!
1)
b0111111001 5
b11111100 7
0/
0'
b0111111000 4
03
02
#30000
0!
0)
#35000
1!
1)
b0111111000 5
0.
0&
b0111110111 4
#40000
0!
0)
#45000
1!
1)
b0111110111 5
b0111110110 4
#50000
0!
0)
#55000
1!
1)
b0111110110 5
b0111110101 4
#60000
0!
0)
#65000
1!
1)
b0111110101 5
b0111110100 4
#70000
0!
0)
#75000
1!
1)
b0111110100 5
b0111110011 4
#80000
0!
0)
#85000
1!
1)
b0111110011 5
b0111110010 4
#90000
0!
0)
#95000
1!
1)
b0111110010 5
b0111110001 4
#100000
0!
0)
#105000
1!
1)
b0111110001 5
b0111110000 4
#110000
0!
0)
#115000
1!
1)
b0111110000 5
b0111101111 4
#120000
0!
0)
#125000
1!
1)
b0111101111 5
b0111101110 4
#130000
0!
0)
#135000
1!
1)
b0111101110 5
b0111101101 4
#140000
0!
0)
#145000
1!
1)
b0111101101 5
b0111101100 4
#150000
0!
0)
#155000
1!
1)
b0111101100 5
b0111101011 4
#160000
0!
0)
#165000
1!
1)
b0111101011 5
b0111101010 4
#170000
0!
0)
#175000
1!
1)
b0111101010 5
b0111101001 4
#180000
0!
0)
#185000
1!
1)
b0111101001 5
b0111101000 4
#190000
0!
0)
#195000
1!
1)
b0111101000 5
b0111100111 4
#200000
0!
0)
#205000
1!
1)
b0111100111 5
b0111100110 4
#210000
0!
0)
#215000
1!
1)
b0111100110 5
b0111100101 4
#220000
0!
0)
#225000
1!
1)
b0111100101 5
b0111100100 4
#230000
0!
0)
#235000
1!
1)
b0111100100 5
b0111100011 4
#240000
0!
0)
#245000
1!
1)
b0111100011 5
b0111100010 4
#250000
0!
0)
#255000
1!
1)
b0111100010 5
b0111100001 4
#260000
0!
0)
#265000
1!
1)
b0111100001 5
b0111100000 4
#270000
0!
0)
#275000
1!
1)
b0111100000 5
b0111011111 4
#280000
0!
0)
#285000
1!
1)
b0111011111 5
b0111011110 4
#290000
0!
0)
#295000
1!
1)
b0111011110 5
b0111011101 4
#300000
0!
0)
#305000
1!
1)
b0111011101 5
b0111011100 4
#310000
0!
0)
#315000
1!
1)
b0111011100 5
b0111011011 4
#320000
0!
0)
#325000
1!
1)
b0111011011 5
b0111011010 4
#330000
0!
0)
#335000
1!
1)
b0111011010 5
b0111011001 4
#340000
0!
0)
#345000
1!
1)
b0111011001 5
b0111011000 4
#350000
0!
0)
#355000
1!
1)
b0111011000 5
b0111010111 4
#360000
0!
0)
#365000
1!
1)
b0111010111 5
b0111010110 4
#370000
0!
0)
#375000
1!
1)
b0111010110 5
b0111010101 4
#380000
0!
0)
#385000
1!
1)
b0111010101 5
b0111010100 4
#390000
0!
0)
#395000
1!
1)
b0111010100 5
b0111010011 4
#400000
0!
0)
#405000
1!
1)
b0111010011 5
b0111010010 4
#410000
0!
0)
#415000
1!
1)
b0111010010 5
b0111010001 4
#420000
0!
0)
#425000
1!
1)
b0111010001 5
b0111010000 4
#430000
0!
0)
#435000
1!
1)
b0111010000 5
b0111001111 4
#440000
0!
0)
#445000
1!
1)
b0111001111 5
b0111001110 4
#450000
0!
0)
#455000
1!
1)
b0111001110 5
b0111001101 4
#460000
0!
0)
#465000
1!
1)
b0111001101 5
b0111001100 4
#470000
0!
0)
#475000
1!
1)
b0111001100 5
b0111001011 4
#480000
0!
0)
#485000
1!
1)
b0111001011 5
b0111001010 4
#490000
0!
0)
#495000
1!
1)
b0111001010 5
b0111001001 4
#500000
0!
0)
#505000
1!
1)
b0111001001 5
b0111001000 4
#510000
0!
0)
#515000
1!
1)
b0111001000 5
b0111000111 4
#520000
0!
0)
#525000
1!
1)
b0111000111 5
b0111000110 4
#530000
0!
0)
#535000
1!
1)
b0111000110 5
b0111000101 4
#540000
0!
0)
#545000
1!
1)
b0111000101 5
b0111000100 4
#550000
0!
0)
#555000
1!
1)
b0111000100 5
b0111000011 4
#560000
0!
0)
#565000
1!
1)
b0111000011 5
b0111000010 4
#570000
0!
0)
#575000
1!
1)
b0111000010 5
b0111000001 4
#580000
0!
0)
#585000
1!
1)
b0111000001 5
b0111000000 4
#590000
0!
0)
#595000
1!
1)
b0111000000 5
b0110111111 4
#600000
0!
0)
#605000
1!
1)
b0110111111 5
b0110111110 4
#610000
0!
0)
#615000
1!
1)
b0110111110 5
b0110111101 4
#620000
0!
0)
#625000
1!
1)
b0110111101 5
b0110111100 4
#630000
0!
0)
#635000
1!
1)
b0110111100 5
b0110111011 4
#640000
0!
0)
#645000
1!
1)
b0110111011 5
b0110111010 4
#650000
0!
0)
#655000
1!
1)
b0110111010 5
b0110111001 4
#660000
0!
0)
#665000
1!
1)
b0110111001 5
b0110111000 4
#670000
0!
0)
#675000
1!
1)
b0110111000 5
b0110110111 4
#680000
0!
0)
#685000
1!
1)
b0110110111 5
b0110110110 4
#690000
0!
0)
#695000
1!
1)
b0110110110 5
b0110110101 4
#700000
0!
0)
#705000
1!
1)
b0110110101 5
b0110110100 4
#710000
0!
0)
#715000
1!
1)
b0110110100 5
b0110110011 4
#720000
0!
0)
#725000
1!
1)
b0110110011 5
b0110110010 4
#730000
0!
0)
#735000
1!
1)
b0110110010 5
b0110110001 4
#740000
0!
0)
#745000
1!
1)
b0110110001 5
b0110110000 4
#750000
0!
0)
#755000
1!
1)
b0110110000 5
b0110101111 4
#760000
0!
0)
#765000
1!
1)
b0110101111 5
b0110101110 4
#770000
0!
0)
#775000
1!
1)
b0110101110 5
b0110101101 4
#780000
0!
0)
#785000
1!
1)
b0110101101 5
b0110101100 4
#790000
0!
0)
#795000
1!
1)
b0110101100 5
b0110101011 4
#800000
0!
0)
#805000
1!
1)
b0110101011 5
b0110101010 4
#810000
0!
0)
#815000
1!
1)
b0110101010 5
b0110101001 4
#820000
0!
0)
#825000
1!
1)
b0110101001 5
b0110101000 4
#830000
0!
0)
#835000
1!
1)
b0110101000 5
b0110100111 4
#840000
0!
0)
#845000
1!
1)
b0110100111 5
b0110100110 4
#850000
0!
0)
#855000
1!
1)
b0110100110 5
b0110100101 4
#860000
0!
0)
#865000
1!
1)
b0110100101 5
b0110100100 4
#870000
0!
0)
#875000
1!
1)
b0110100100 5
b0110100011 4
#880000
0!
0)
#885000
1!
1)
b0110100011 5
b0110100010 4
#890000
0!
0)
#895000
1!
1)
b0110100010 5
b0110100001 4
#900000
0!
0)
#905000
1!
1)
b0110100001 5
b0110100000 4
#910000
0!
0)
#915000
1!
1)
b0110100000 5
b0110011111 4
#920000
0!
0)
#925000
1!
1)
b0110011111 5
b0110011110 4
#930000
0!
0)
#935000
1!
1)
b0110011110 5
b0110011101 4
#940000
0!
0)
#945000
1!
1)
b0110011101 5
b0110011100 4
#950000
0!
0)
#955000
1!
1)
b0110011100 5
b0110011011 4
#960000
0!
0)
#965000
1!
1)
b0110011011 5
b0110011010 4
#970000
0!
0)
#975000
1!
1)
b0110011010 5
b0110011001 4
#980000
0!
0)
#985000
1!
1)
b0110011001 5
b0110011000 4
#990000
0!
0)
#995000
1!
1)
b0110011000 5
b0110010111 4
#1000000
0!
0)
#1005000
1!
1)
b0110010111 5
b0110010110 4
#1010000
0!
0)
#1015000
1!
1)
b0110010110 5
b0110010101 4
#1020000
0!
0)
#1025000
1!
1)
b0110010101 5
b0110010100 4
#1030000
0!
0)
#1035000
1!
1)
b0110010100 5
b0110010011 4
#1040000
0!
0)
#1045000
1!
1)
b0110010011 5
b0110010010 4
#1050000
0!
0)
#1055000
1!
1)
b0110010010 5
b0110010001 4
#1060000
0!
0)
#1065000
1!
1)
b0110010001 5
b0110010000 4
#1070000
0!
0)
#1075000
1!
1)
b0110010000 5
b0110001111 4
#1080000
0!
0)
#1085000
1!
1)
b0110001111 5
b0110001110 4
#1090000
0!
0)
#1095000
1!
1)
b0110001110 5
b0110001101 4
#1100000
0!
0)
#1105000
1!
1)
b0110001101 5
b0110001100 4
#1110000
0!
0)
#1115000
1!
1)
b0110001100 5
b0110001011 4
#1120000
0!
0)
#1125000
1!
1)
b0110001011 5
b0110001010 4
#1130000
0!
0)
#1135000
1!
1)
b0110001010 5
b0110001001 4
#1140000
0!
0)
#1145000
1!
1)
b0110001001 5
b0110001000 4
#1150000
0!
0)
#1155000
1!
1)
b0110001000 5
b0110000111 4
#1160000
0!
0)
#1165000
1!
1)
b0110000111 5
b0110000110 4
#1170000
0!
0)
#1175000
1!
1)
b0110000110 5
b0110000101 4
#1180000
0!
0)
#1185000
1!
1)
b0110000101 5
b0110000100 4
#1190000
0!
0)
#1195000
1!
1)
b0110000100 5
b0110000011 4
#1200000
0!
0)
#1205000
1!
1)
b0110000011 5
b0110000010 4
#1210000
0!
0)
#1215000
1!
1)
b0110000010 5
b0110000001 4
#1220000
0!
0)
#1225000
1!
1)
b0110000001 5
b0110000000 4
#1230000
0!
0)
#1235000
1!
1)
b0110000000 5
b0101111111 4
#1240000
0!
0)
#1245000
1!
1)
b0101111111 5
b0101111110 4
#1250000
0!
0)
#1255000
1!
1)
b0101111110 5
b0101111101 4
#1260000
0!
0)
#1265000
1!
1)
b0101111101 5
b0101111100 4
#1270000
0!
0)
#1275000
1!
1)
b0101111100 5
b0101111011 4
#1280000
0!
0)
#1285000
1!
1)
b0101111011 5
b0101111010 4
#1290000
0!
0)
#1295000
1!
1)
b0101111010 5
b0101111001 4
#1300000
0!
0)
#1305000
1!
1)
b0101111001 5
b0101111000 4
#1310000
0!
0)
#1315000
1!
1)
b0101111000 5
b0101110111 4
#1320000
0!
0)
#1325000
1!
1)
b0101110111 5
b0101110110 4
#1330000
0!
0)
#1335000
1!
1)
b0101110110 5
b0101110101 4
#1340000
0!
0)
#1345000
1!
1)
b0101110101 5
b0101110100 4
#1350000
0!
0)
#1355000
1!
1)
b0101110100 5
b0101110011 4
#1360000
0!
0)
#1365000
1!
1)
b0101110011 5
b0101110010 4
#1370000
0!
0)
#1375000
1!
1)
b0101110010 5
b0101110001 4
#1380000
0!
0)
#1385000
1!
1)
b0101110001 5
b0101110000 4
#1390000
0!
0)
#1395000
1!
1)
b0101110000 5
b0101101111 4
#1400000
0!
0)
#1405000
1!
1)
b0101101111 5
b0101101110 4
#1410000
0!
0)
#1415000
1!
1)
b0101101110 5
b0101101101 4
#1420000
0!
0)
#1425000
1!
1)
b0101101101 5
b0101101100 4
#1430000
0!
0)
#1435000
1!
1)
b0101101100 5
b0101101011 4
#1440000
0!
0)
#1445000
1!
1)
b0101101011 5
b0101101010 4
#1450000
0!
0)
#1455000
1!
1)
b0101101010 5
b0101101001 4
#1460000
0!
0)
#1465000
1!
1)
b0101101001 5
b0101101000 4
#1470000
0!
0)
#1475000
1!
1)
b0101101000 5
b0101100111 4
#1480000
0!
0)
#1485000
1!
1)
b0101100111 5
b0101100110 4
#1490000
0!
0)
#1495000
1!
1)
b0101100110 5
b0101100101 4
#1500000
0!
0)
#1505000
1!
1)
b0101100101 5
b0101100100 4
#1510000
0!
0)
#1515000
1!
1)
b0101100100 5
b0101100011 4
#1520000
0!
0)
#1525000
1!
1)
b0101100011 5
b0101100010 4
#1530000
0!
0)
#1535000
1!
1)
b0101100010 5
b0101100001 4
#1540000
0!
0)
#1545000
1!
1)
b0101100001 5
b0101100000 4
#1550000
0!
0)
#1555000
1!
1)
b0101100000 5
b0101011111 4
#1560000
0!
0)
#1565000
1!
1)
b0101011111 5
b0101011110 4
#1570000
0!
0)
#1575000
1!
1)
b0101011110 5
b0101011101 4
#1580000
0!
0)
#1585000
1!
1)
b0101011101 5
b0101011100 4
#1590000
0!
0)
#1595000
1!
1)
b0101011100 5
b0101011011 4
#1600000
0!
0)
#1605000
1!
1)
b0101011011 5
b0101011010 4
#1610000
0!
0)
#1615000
1!
1)
b0101011010 5
b0101011001 4
#1620000
0!
0)
#1625000
1!
1)
b0101011001 5
b0101011000 4
#1630000
0!
0)
#1635000
1!
1)
b0101011000 5
b0101010111 4
#1640000
0!
0)
#1645000
1!
1)
b0101010111 5
b0101010110 4
#1650000
0!
0)
#1655000
1!
1)
b0101010110 5
b0101010101 4
#1660000
0!
0)
#1665000
1!
1)
b0101010101 5
b0101010100 4
#1670000
0!
0)
#1675000
1!
1)
b0101010100 5
b0101010011 4
#1680000
0!
0)
#1685000
1!
1)
b0101010011 5
b0101010010 4
#1690000
0!
0)
#1695000
1!
1)
b0101010010 5
b0101010001 4
#1700000
0!
0)
#1705000
1!
1)
b0101010001 5
b0101010000 4
#1710000
0!
0)
#1715000
1!
1)
b0101010000 5
b0101001111 4
#1720000
0!
0)
#1725000
1!
1)
b0101001111 5
b0101001110 4
#1730000
0!
0)
#1735000
1!
1)
b0101001110 5
b0101001101 4
#1740000
0!
0)
#1745000
1!
1)
b0101001101 5
b0101001100 4
#1750000
0!
0)
#1755000
1!
1)
b0101001100 5
b0101001011 4
#1760000
0!
0)
#1765000
1!
1)
b0101001011 5
b0101001010 4
#1770000
0!
0)
#1775000
1!
1)
b0101001010 5
b0101001001 4
#1780000
0!
0)
#1785000
1!
1)
b0101001001 5
b0101001000 4
#1790000
0!
0)
#1795000
1!
1)
b0101001000 5
b0101000111 4
#1800000
0!
0)
#1805000
1!
1)
b0101000111 5
b0101000110 4
#1810000
0!
0)
#1815000
1!
1)
b0101000110 5
b0101000101 4
#1820000
0!
0)
#1825000
1!
1)
b0101000101 5
b0101000100 4
#1830000
0!
0)
#1835000
1!
1)
b0101000100 5
b0101000011 4
#1840000
0!
0)
#1845000
1!
1)
b0101000011 5
b0101000010 4
#1850000
0!
0)
#1855000
1!
1)
b0101000010 5
b0101000001 4
#1860000
0!
0)
#1865000
1!
1)
b0101000001 5
b0101000000 4
#1870000
0!
0)
#1875000
1!
1)
b0101000000 5
b0100111111 4
#1880000
0!
0)
#1885000
1!
1)
b0100111111 5
b0100111110 4
#1890000
0!
0)
#1895000
1!
1)
b0100111110 5
b0100111101 4
#1900000
0!
0)
#1905000
1!
1)
b0100111101 5
b0100111100 4
#1910000
0!
0)
#1915000
1!
1)
b0100111100 5
b0100111011 4
#1920000
0!
0)
#1925000
1!
1)
b0100111011 5
b0100111010 4
#1930000
0!
0)
#1935000
1!
1)
b0100111010 5
b0100111001 4
#1940000
0!
0)
#1945000
1!
1)
b0100111001 5
b0100111000 4
#1950000
0!
0)
#1955000
1!
1)
b0100111000 5
b0100110111 4
#1960000
0!
0)
#1965000
1!
1)
b0100110111 5
b0100110110 4
#1970000
0!
0)
#1975000
1!
1)
b0100110110 5
b0100110101 4
#1980000
0!
0)
#1985000
1!
1)
b0100110101 5
b0100110100 4
#1990000
0!
0)
#1995000
1!
1)
b0100110100 5
b0100110011 4
#2000000
0!
0)
#2005000
1!
1)
b0100110011 5
b0100110010 4
#2010000
0!
0)
#2015000
1!
1)
b0100110010 5
b0100110001 4
#2020000
0!
0)
#2025000
1!
1)
b0100110001 5
b0100110000 4
#2030000
0!
0)
#2035000
1!
1)
b0100110000 5
b0100101111 4
#2040000
0!
0)
#2045000
1!
1)
b0100101111 5
b0100101110 4
#2050000
0!
0)
#2055000
1!
1)
b0100101110 5
b0100101101 4
#2060000
0!
0)
#2065000
1!
1)
b0100101101 5
b0100101100 4
#2070000
0!
0)
#2075000
1!
1)
b0100101100 5
b0100101011 4
#2080000
0!
0)
#2085000
1!
1)
b0100101011 5
b0100101010 4
#2090000
0!
0)
#2095000
1!
1)
b0100101010 5
b0100101001 4
#2100000
0!
0)
#2105000
1!
1)
b0100101001 5
b0100101000 4
#2110000
0!
0)
#2115000
1!
1)
b0100101000 5
b0100100111 4
#2120000
0!
0)
#2125000
1!
1)
b0100100111 5
b0100100110 4
#2130000
0!
0)
#2135000
1!
1)
b0100100110 5
b0100100101 4
#2140000
0!
0)
#2145000
1!
1)
b0100100101 5
b0100100100 4
#2150000
0!
0)
#2155000
1!
1)
b0100100100 5
b0100100011 4
#2160000
0!
0)
#2165000
1!
1)
b0100100011 5
b0100100010 4
#2170000
0!
0)
#2175000
1!
1)
b0100100010 5
b0100100001 4
#2180000
0!
0)
#2185000
1!
1)
b0100100001 5
b0100100000 4
#2190000
0!
0)
#2195000
1!
1)
b0100100000 5
b0100011111 4
#2200000
0!
0)
#2205000
1!
1)
b0100011111 5
b0100011110 4
#2210000
0!
0)
#2215000
1!
1)
b0100011110 5
b0100011101 4
#2220000
0!
0)
#2225000
1!
1)
b0100011101 5
b0100011100 4
#2230000
0!
0)
#2235000
1!
1)
b0100011100 5
b0100011011 4
#2240000
0!
0)
#2245000
1!
1)
b0100011011 5
b0100011010 4
#2250000
0!
0)
#2255000
1!
1)
b0100011010 5
b0100011001 4
#2260000
0!
0)
#2265000
1!
1)
b0100011001 5
b0100011000 4
#2270000
0!
0)
#2275000
1!
1)
b0100011000 5
b0100010111 4
#2280000
0!
0)
#2285000
1!
1)
b0100010111 5
b0100010110 4
#2290000
0!
0)
#2295000
1!
1)
b0100010110 5
b0100010101 4
#2300000
0!
0)
#2305000
1!
1)
b0100010101 5
b0100010100 4
#2310000
0!
0)
#2315000
1!
1)
b0100010100 5
b0100010011 4
#2320000
0!
0)
#2325000
1!
1)
b0100010011 5
b0100010010 4
#2330000
0!
0)
#2335000
1!
1)
b0100010010 5
b0100010001 4
#2340000
0!
0)
#2345000
1!
1)
b0100010001 5
b0100010000 4
#2350000
0!
0)
#2355000
1!
1)
b0100010000 5
b0100001111 4
#2360000
0!
0)
#2365000
1!
1)
b0100001111 5
b0100001110 4
#2370000
0!
0)
#2375000
1!
1)
b0100001110 5
b0100001101 4
#2380000
0!
0)
#2385000
1!
1)
b0100001101 5
b0100001100 4
#2390000
0!
0)
#2395000
1!
1)
b0100001100 5
b0100001011 4
#2400000
0!
0)
#2405000
1!
1)
b0100001011 5
b0100001010 4
#2410000
0!
0)
#2415000
1!
1)
b0100001010 5
b0100001001 4
#2420000
0!
0)
#2425000
1!
1)
b0100001001 5
b0100001000 4
#2430000
0!
0)
#2435000
1!
1)
b0100001000 5
b0100000111 4
#2440000
0!
0)
#2445000
1!
1)
b0100000111 5
b0100000110 4
#2450000
0!
0)
#2455000
1!
1)
b0100000110 5
b0100000101 4
#2460000
0!
0)
#2465000
1!
1)
b0100000101 5
b0100000100 4
#2470000
0!
0)
#2475000
1!
1)
b0100000100 5
b0100000011 4
#2480000
0!
0)
#2485000
1!
1)
b0100000011 5
b0100000010 4
#2490000
0!
0)
#2495000
1!
1)
b0100000010 5
b0100000001 4
#2500000
0!
0)
#2505000
1!
1)
b0100000001 5
b0100000000 4
#2510000
0!
0)
#2515000
1!
1)
b0100000000 5
b1011111001 4
12
#2520000
0!
0)
#2525000
1!
1)
b1011111001 5
1/
1'
b11111111 0
b11111111 (
b1011111000 4
02
#2530000
0!
0)
#2535000
1!
1)
b1011111000 5
0/
0'
b1011110111 4
#2540000
0!
0)
#2545000
1!
1)
b1011110111 5
b1011110110 4
#2550000
0!
0)
#2555000
1!
1)
b1011110110 5
b1011110101 4
#2560000
0!
0)
#2565000
1!
1)
b1011110101 5
b1011110100 4
#2570000
0!
0)
#2575000
1!
1)
b1011110100 5
b1011110011 4
#2580000
0!
0)
#2585000
1!
1)
b1011110011 5
b1011110010 4
#2590000
0!
0)
#2595000
1!
1)
b1011110010 5
b1011110001 4
#2600000
0!
0)
#2605000
1!
1)
b1011110001 5
b1011110000 4
#2610000
0!
0)
#2615000
1!
1)
b1011110000 5
b1011101111 4
#2620000
0!
0)
#2625000
1!
1)
b1011101111 5
b1011101110 4
#2630000
0!
0)
#2635000
1!
1)
b1011101110 5
b1011101101 4
#2640000
0!
0)
#2645000
1!
1)
b1011101101 5
b1011101100 4
#2650000
0!
0)
#2655000
1!
1)
b1011101100 5
b1011101011 4
#2660000
0!
0)
#2665000
1!
1)
b1011101011 5
b1011101010 4
#2670000
0!
0)
#2675000
1!
1)
b1011101010 5
b1011101001 4
#2680000
0!
0)
#2685000
1!
1)
b1011101001 5
b1011101000 4
#2690000
0!
0)
#2695000
1!
1)
b1011101000 5
b1011100111 4
#2700000
0!
0)
#2705000
1!
1)
b1011100111 5
b1011100110 4
#2710000
0!
0)
#2715000
1!
1)
b1011100110 5
b1011100101 4
#2720000
0!
0)
#2725000
1!
1)
b1011100101 5
b1011100100 4
#2730000
0!
0)
#2735000
1!
1)
b1011100100 5
b1011100011 4
#2740000
0!
0)
#2745000
1!
1)
b1011100011 5
b1011100010 4
#2750000
0!
0)
#2755000
1!
1)
b1011100010 5
b1011100001 4
#2760000
0!
0)
#2765000
1!
1)
b1011100001 5
b1011100000 4
#2770000
0!
0)
#2775000
1!
1)
b1011100000 5
b1011011111 4
#2780000
0!
0)
#2785000
1!
1)
b1011011111 5
b1011011110 4
#2790000
0!
0)
#2795000
1!
1)
b1011011110 5
b1011011101 4
#2800000
0!
0)
#2805000
1!
1)
b1011011101 5
b1011011100 4
#2810000
0!
0)
#2815000
1!
1)
b1011011100 5
b1011011011 4
#2820000
0!
0)
#2825000
1!
1)
b1011011011 5
b1011011010 4
#2830000
0!
0)
#2835000
1!
1)
b1011011010 5
b1011011001 4
#2840000
0!
0)
#2845000
1!
1)
b1011011001 5
b1011011000 4
#2850000
0!
0)
#2855000
1!
1)
b1011011000 5
b1011010111 4
#2860000
0!
0)
#2865000
1!
1)
b1011010111 5
b1011010110 4
#2870000
0!
0)
#2875000
1!
1)
b1011010110 5
b1011010101 4
#2880000
0!
0)
#2885000
1!
1)
b1011010101 5
b1011010100 4
#2890000
0!
0)
#2895000
1!
1)
b1011010100 5
b1011010011 4
#2900000
0!
0)
#2905000
1!
1)
b1011010011 5
b1011010010 4
#2910000
0!
0)
#2915000
1!
1)
b1011010010 5
b1011010001 4
#2920000
0!
0)
#2925000
1!
1)
b1011010001 5
b1011010000 4
#2930000
0!
0)
#2935000
1!
1)
b1011010000 5
b1011001111 4
#2940000
0!
0)
#2945000
1!
1)
b1011001111 5
b1011001110 4
#2950000
0!
0)
#2955000
1!
1)
b1011001110 5
b1011001101 4
#2960000
0!
0)
#2965000
1!
1)
b1011001101 5
b1011001100 4
#2970000
0!
0)
#2975000
1!
1)
b1011001100 5
b1011001011 4
#2980000
0!
0)
#2985000
1!
1)
b1011001011 5
b1011001010 4
#2990000
0!
0)
#2995000
1!
1)
b1011001010 5
b1011001001 4
#3000000
0!
0)
#3005000
1!
1)
b1011001001 5
b1011001000 4
#3010000
0!
0)
#3015000
1!
1)
b1011001000 5
b1011000111 4
#3020000
0!
0)
#3025000
1!
1)
b1011000111 5
b1011000110 4
#3030000
0!
0)
#3035000
1!
1)
b1011000110 5
b1011000101 4
#3040000
0!
0)
#3045000
1!
1)
b1011000101 5
b1011000100 4
#3050000
0!
0)
#3055000
1!
1)
b1011000100 5
b1011000011 4
#3060000
0!
0)
#3065000
1!
1)
b1011000011 5
b1011000010 4
#3070000
0!
0)
#3075000
1!
1)
b1011000010 5
b1011000001 4
#3080000
0!
0)
#3085000
1!
1)
b1011000001 5
b1011000000 4
#3090000
0!
0)
#3095000
1!
1)
b1011000000 5
b1010111111 4
#3100000
0!
0)
#3105000
1!
1)
b1010111111 5
b1010111110 4
#3110000
0!
0)
#3115000
1!
1)
b1010111110 5
b1010111101 4
#3120000
0!
0)
#3125000
1!
1)
b1010111101 5
b1010111100 4
#3130000
0!
0)
#3135000
1!
1)
b1010111100 5
b1010111011 4
#3140000
0!
0)
#3145000
1!
1)
b1010111011 5
b1010111010 4
#3150000
0!
0)
#3155000
1!
1)
b1010111010 5
b1010111001 4
#3160000
0!
0)
#3165000
1!
1)
b1010111001 5
b1010111000 4
#3170000
0!
0)
#3175000
1!
1)
b1010111000 5
b1010110111 4
#3180000
0!
0)
#3185000
1!
1)
b1010110111 5
b1010110110 4
#3190000
0!
0)
#3195000
1!
1)
b1010110110 5
b1010110101 4
#3200000
0!
0)
#3205000
1!
1)
b1010110101 5
b1010110100 4
#3210000
0!
0)
#3215000
1!
1)
b1010110100 5
b1010110011 4
#3220000
0!
0)
#3225000
1!
1)
b1010110011 5
b1010110010 4
#3230000
0!
0)
#3235000
1!
1)
b1010110010 5
b1010110001 4
#3240000
0!
0)
#3245000
1!
1)
b1010110001 5
b1010110000 4
#3250000
0!
0)
#3255000
1!
1)
b1010110000 5
b1010101111 4
#3260000
0!
0)
#3265000
1!
1)
b1010101111 5
b1010101110 4
#3270000
0!
0)
#3275000
1!
1)
b1010101110 5
b1010101101 4
#3280000
0!
0)
#3285000
1!
1)
b1010101101 5
b1010101100 4
#3290000
0!
0)
#3295000
1!
1)
b1010101100 5
b1010101011 4
#3300000
0!
0)
#3305000
1!
1)
b1010101011 5
b1010101010 4
#3310000
0!
0)
#3315000
1!
1)
b1010101010 5
b1010101001 4
#3320000
0!
0)
#3325000
1!
1)
b1010101001 5
b1010101000 4
#3330000
0!
0)
#3335000
1!
1)
b1010101000 5
b1010100111 4
#3340000
0!
0)
#3345000
1!
1)
b1010100111 5
b1010100110 4
#3350000
0!
0)
#3355000
1!
1)
b1010100110 5
b1010100101 4
#3360000
0!
0)
#3365000
1!
1)
b1010100101 5
b1010100100 4
#3370000
0!
0)
#3375000
1!
1)
b1010100100 5
b1010100011 4
#3380000
0!
0)
#3385000
1!
1)
b1010100011 5
b1010100010 4
#3390000
0!
0)
#3395000
1!
1)
b1010100010 5
b1010100001 4
#3400000
0!
0)
#3405000
1!
1)
b1010100001 5
b1010100000 4
#3410000
0!
0)
#3415000
1!
1)
b1010100000 5
b1010011111 4
#3420000
0!
0)
#3425000
1!
1)
b1010011111 5
b1010011110 4
#3430000
0!
0)
#3435000
1!
1)
b1010011110 5
b1010011101 4
#3440000
0!
0)
#3445000
1!
1)
b1010011101 5
b1010011100 4
#3450000
0!
0)
#3455000
1!
1)
b1010011100 5
b1010011011 4
#3460000
0!
0)
#3465000
1!
1)
b1010011011 5
b1010011010 4
#3470000
0!
0)
#3475000
1!
1)
b1010011010 5
b1010011001 4
#3480000
0!
0)
#3485000
1!
1)
b1010011001 5
b1010011000 4
#3490000
0!
0)
#3495000
1!
1)
b1010011000 5
b1010010111 4
#3500000
0!
0)
#3505000
1!
1)
b1010010111 5
b1010010110 4
#3510000
0!
0)
#3515000
1!
1)
b1010010110 5
b1010010101 4
#3520000
0!
0)
#3525000
1!
1)
b1010010101 5
b1010010100 4
#3530000
0!
0)
#3535000
1!
1)
b1010010100 5
b1010010011 4
#3540000
0!
0)
#3545000
1!
1)
b1010010011 5
b1010010010 4
#3550000
0!
0)
#3555000
1!
1)
b1010010010 5
b1010010001 4
#3560000
0!
0)
#3565000
1!
1)
b1010010001 5
b1010010000 4
#3570000
0!
0)
#3575000
1!
1)
b1010010000 5
b1010001111 4
#3580000
0!
0)
#3585000
1!
1)
b1010001111 5
b1010001110 4
#3590000
0!
0)
#3595000
1!
1)
b1010001110 5
b1010001101 4
#3600000
0!
0)
#3605000
1!
1)
b1010001101 5
b1010001100 4
#3610000
0!
0)
#3615000
1!
1)
b1010001100 5
b1010001011 4
#3620000
0!
0)
#3625000
1!
1)
b1010001011 5
b1010001010 4
#3630000
0!
0)
#3635000
1!
1)
b1010001010 5
b1010001001 4
#3640000
0!
0)
#3645000
1!
1)
b1010001001 5
b1010001000 4
#3650000
0!
0)
#3655000
1!
1)
b1010001000 5
b1010000111 4
#3660000
0!
0)
#3665000
1!
1)
b1010000111 5
b1010000110 4
#3670000
0!
0)
#3675000
1!
1)
b1010000110 5
b1010000101 4
#3680000
0!
0)
#3685000
1!
1)
b1010000101 5
b1010000100 4
#3690000
0!
0)
#3695000
1!
1)
b1010000100 5
b1010000011 4
#3700000
0!
0)
#3705000
1!
1)
b1010000011 5
b1010000010 4
#3710000
0!
0)
#3715000
1!
1)
b1010000010 5
b1010000001 4
#3720000
0!
0)
#3725000
1!
1)
b1010000001 5
b1010000000 4
#3730000
0!
0)
#3735000
1!
1)
b1010000000 5
b1001111111 4
#3740000
0!
0)
#3745000
1!
1)
b1001111111 5
b1001111110 4
#3750000
0!
0)
#3755000
1!
1)
b1001111110 5
b1001111101 4
#3760000
0!
0)
